9 Difference-in-Differences – Kausalanalyse mit R
…
same: Jüdische Einrichtung im selben Block

(
  dat_listcol <- polizeipraesenz %>% 
    group_by(observ, monat) %>%
    transmute(
      d2more = list(totrob[distanz > 2]),
      d2 = list(totrob[distanz == 2]),
      d1 = list(totrob[distanz == 1]),
      same = list(totrob[institut == 1])
    )
)

# A tibble: 8,760 × 6
# Groups:   observ, monat [8,760]
   observ monat d2more    d2        d1        same     
    <dbl> <ord> <list>    <list>    <list>    <list>   
 1    870 April <dbl [0]> <dbl [0]> <dbl [1]> <dbl [0]>
 2    851 April <dbl [0]> <dbl [1]> <dbl [0]> <dbl [0]>
 3    843 April <dbl [0]> <dbl [0]> <dbl [0]> <dbl [1]>
 4    796 April <dbl [0]> <dbl [0]> <dbl [1]> <dbl [0]>
 5    790 April <dbl [0]> <dbl [0]> <dbl [0]> <dbl [1]>
 6    789 April <dbl [0]> <dbl [0]> <dbl [1]> <dbl [0]>
 7    844 April <dbl [0]> <dbl [0]> <dbl [0]> <dbl [1]>
 8    858 April <dbl [0]> <dbl [0]> <dbl [1]> <dbl [0]>
 9    787 April <dbl [0]> <dbl [0]> <dbl [1]> <dbl [0]>
10    850 April <dbl [0]> <dbl [0]> <dbl [1]> <dbl [0]>
# ℹ 8,750 more rows
…
