13 Neuronale Netzwerke – Kausalanalyse mit R
…
prepare <- prep(blueprint, training = housing_train)
prepare

baked_train <- bake(prepare, new_data = housing_train)
baked_test <- bake(prepare, new_data = housing_test)

baked_train

# A tibble: 2,344 × 190
   Lot_Frontage  Lot_Area Overall_Qual Overall_Cond Year_Built Year_Remod_Add
          <dbl>     <dbl>        <dbl>        <dbl>      <dbl>          <dbl>
 1       1.15    0.350         -0.0340       -0.487     0.843           0.654
 2       0.277  -0.0336        -0.800        -0.487    -0.155          -0.839
 3      -0.129  -0.0213        -0.800        -1.76     -1.75           -1.66 
 4      -0.909  -3.19          -0.0340        0.479     0.277           0.365
 5       0.407  -0.223         -1.68          1.26     -0.0554         -0.694
 6      -1.88    0.0595         1.28         -0.487     1.01            0.847
 7       0.407   0.000506       0.655        -0.487     0.943           0.750
 8       0.144  -0.377         -0.0340       -0.487     0.910           0.895
 9      -0.0461 -1.52          -0.0340       -0.487     0.111          -0.453
10       1.98    0.501          1.28         -0.487     0.876           0.654
# ℹ 2,334 more rows
# ℹ 184 more variables: Mas_Vnr_Area <dbl>, Exter_Qual <dbl>, Exter_Cond <dbl>,
#   Bsmt_Qual <dbl>, BsmtFin_SF_1 <dbl>, BsmtFin_SF_2 <dbl>, Bsmt_Unf_SF <dbl>,
#   Total_Bsmt_SF <dbl>, Heating_QC <dbl>, First_Flr_SF <dbl>,
#   Second_Flr_SF <dbl>, Low_Qual_Fin_SF <dbl>, Gr_Liv_Area <dbl>,
#   Bsmt_Full_Bath <dbl>, Bsmt_Half_Bath <dbl>, Full_Bath <dbl>,
#   Half_Bath <dbl>, Bedroom_AbvGr <dbl>, Kitchen_AbvGr <dbl>, …
…
