5 Matching – Kausalanalyse mit R
…
Die Propensity Scores erhalten wir als angepasste Werte aus der Regression darkmode_ps_logit mit fitted(). Wir erweitern den Datensatz mit den Ergebnissen.

# Datensatz um Propensity Scores erweitern
(
  darkmode_probs <- 
    darkmode %>%
    mutate(
      PS = fitted(darkmode_ps_logit)
    )
)

# A tibble: 300 × 6
   read_time dark_mode  male   age  hours     PS
       <dbl>     <dbl> <dbl> <dbl>  <dbl>  <dbl>
 1      14.4         0     0    43   65.6 0.304 
 2      15.4         0     1    55  125.  0.478 
 3      20.9         1     0    23  643.  0.642 
 4      20           0     0    41  129.  0.335 
 5      21.5         1     0    29  190.  0.547 
 6      19.5         0     0    64  185.  0.0849
 7      22           1     0    18  334.  0.727 
 8      17.4         0     0    53  279.  0.171 
 9      23.6         0     0    59 1303.  0.108 
10      15.7         0     0    53   16.1 0.174 
# ℹ 290 more rows
…
IPWs anhand der Propensity Scores können schnell mit der Vorschrift \[\begin{align}
  \text{IPW} = \frac{\text{dark\_mode}}{\text{PS}} + \frac{1 - \text{dark\_mode}}{1 - \text{PS}},
\end{align}\] berechnet werden.

# Datensatz um IPWs erweitern
darkmode_IPW <- darkmode_probs %>%
  mutate(
    IPW = dark_mode / PS + (1 - dark_mode) / (1 - PS)
  )

darkmode_IPW %>% 
  select(IPW)

# A tibble: 194 × 1
     IPW
   <dbl>
 1  1.44
 2  1.91
 3  1.56
 4  1.50
 5  1.83
 6  1.38
 7  1.43
 8  1.47
 9  2.71
10  1.42
# ℹ 184 more rows
…
